%YAML 1.1
%TAG !u! tag:unity3d.com,2011:
--- !u!1001 &4080942506517026169
PrefabInstance:
  m_ObjectHideFlags: 0
  serializedVersion: 2
  m_Modification:
    m_TransformParent: {fileID: 0}
    m_Modifications:
    - target: {fileID: 2555685180841828305, guid: eb12aafd6ea9145489aea1b05a206966,
        type: 3}
      propertyPath: m_Color.r
      value: 1
      objectReference: {fileID: 0}
    - target: {fileID: 2555685180841828305, guid: eb12aafd6ea9145489aea1b05a206966,
        type: 3}
      propertyPath: m_Color.g
      value: 0.23180592
      objectReference: {fileID: 0}
    - target: {fileID: 2555685180841828305, guid: eb12aafd6ea9145489aea1b05a206966,
        type: 3}
      propertyPath: m_Color.b
      value: 0.23180592
      objectReference: {fileID: 0}
    - target: {fileID: 2555685180841828307, guid: eb12aafd6ea9145489aea1b05a206966,
        type: 3}
      propertyPath: m_Name
      value: SimpleBird
      objectReference: {fileID: 0}
    - target: {fileID: 2555685180841828316, guid: eb12aafd6ea9145489aea1b05a206966,
        type: 3}
      propertyPath: PlayerCanJumpOn
      value: 0
      objectReference: {fileID: 0}
    - target: {fileID: 2555685180841828316, guid: eb12aafd6ea9145489aea1b05a206966,
        type: 3}
      propertyPath: PointsOnKill
      value: 8
      objectReference: {fileID: 0}
    - target: {fileID: 2555685180841828316, guid: eb12aafd6ea9145489aea1b05a206966,
        type: 3}
      propertyPath: Damage
      value: 22
      objectReference: {fileID: 0}
    - target: {fileID: 2555685180841828316, guid: eb12aafd6ea9145489aea1b05a206966,
        type: 3}
      propertyPath: Speed
      value: 1.75
      objectReference: {fileID: 0}
    - target: {fileID: 2555685180841828316, guid: eb12aafd6ea9145489aea1b05a206966,
        type: 3}
      propertyPath: MaxRangeX
      value: 7
      objectReference: {fileID: 0}
    - target: {fileID: 2555685180841828316, guid: eb12aafd6ea9145489aea1b05a206966,
        type: 3}
      propertyPath: DieAnimLength
      value: 3
      objectReference: {fileID: 0}
    - target: {fileID: 2555685180841828318, guid: eb12aafd6ea9145489aea1b05a206966,
        type: 3}
      propertyPath: m_LocalPosition.x
      value: 115.53639
      objectReference: {fileID: 0}
    - target: {fileID: 2555685180841828318, guid: eb12aafd6ea9145489aea1b05a206966,
        type: 3}
      propertyPath: m_LocalPosition.y
      value: 8.236126
      objectReference: {fileID: 0}
    - target: {fileID: 2555685180841828318, guid: eb12aafd6ea9145489aea1b05a206966,
        type: 3}
      propertyPath: m_LocalPosition.z
      value: 0
      objectReference: {fileID: 0}
    - target: {fileID: 2555685180841828318, guid: eb12aafd6ea9145489aea1b05a206966,
        type: 3}
      propertyPath: m_LocalRotation.x
      value: 0
      objectReference: {fileID: 0}
    - target: {fileID: 2555685180841828318, guid: eb12aafd6ea9145489aea1b05a206966,
        type: 3}
      propertyPath: m_LocalRotation.y
      value: 0
      objectReference: {fileID: 0}
    - target: {fileID: 2555685180841828318, guid: eb12aafd6ea9145489aea1b05a206966,
        type: 3}
      propertyPath: m_LocalRotation.z
      value: 0
      objectReference: {fileID: 0}
    - target: {fileID: 2555685180841828318, guid: eb12aafd6ea9145489aea1b05a206966,
        type: 3}
      propertyPath: m_LocalRotation.w
      value: 1
      objectReference: {fileID: 0}
    - target: {fileID: 2555685180841828318, guid: eb12aafd6ea9145489aea1b05a206966,
        type: 3}
      propertyPath: m_RootOrder
      value: 0
      objectReference: {fileID: 0}
    - target: {fileID: 2555685180841828318, guid: eb12aafd6ea9145489aea1b05a206966,
        type: 3}
      propertyPath: m_LocalEulerAnglesHint.x
      value: 0
      objectReference: {fileID: 0}
    - target: {fileID: 2555685180841828318, guid: eb12aafd6ea9145489aea1b05a206966,
        type: 3}
      propertyPath: m_LocalEulerAnglesHint.y
      value: 0
      objectReference: {fileID: 0}
    - target: {fileID: 2555685180841828318, guid: eb12aafd6ea9145489aea1b05a206966,
        type: 3}
      propertyPath: m_LocalEulerAnglesHint.z
      value: 0
      objectReference: {fileID: 0}
    m_RemovedComponents: []
  m_SourcePrefab: {fileID: 100100000, guid: eb12aafd6ea9145489aea1b05a206966, type: 3}
