%YAML 1.1
%TAG !u! tag:unity3d.com,2011:
--- !u!114 &11400000
MonoBehaviour:
  m_ObjectHideFlags: 0
  m_CorrespondingSourceObject: {fileID: 0}
  m_PrefabInstance: {fileID: 0}
  m_PrefabAsset: {fileID: 0}
  m_GameObject: {fileID: 0}
  m_Enabled: 1
  m_EditorHideFlags: 0
  m_Script: {fileID: 11500000, guid: 5f21a7b65b6325b4c8d7ceb70bba7881, type: 3}
  m_Name: PlayerSettings_V0
  m_EditorClassIdentifier: 
  UseSettings: 1
  BaseHealth: 200
  BaseEnergy: 40
  EnergyLoadingRate: 3
  ImmunityAfterHitTime: 0.75
  HurtStateLength: 0
  StunStateLength: 0
  MeeleeAttackLength: 0
  CantAttackAfterMeeleeAttackLength: 0
  BaseMoveSpeed: 6.5
  MaxSlipOnFloorSpeed: 12
  MaxFallingSpeed: 12
  GravityScaleOnGround: 1
  GroundSpeedModifierOnStop: 4
  GroundSpeedModifierOnTurn: 4
  GroundSpeedModifierOnAccelerate: 1.5
  AirSpeedModifierOnStop: 2.5
  AirSpeedModifierOnTurn: 2.5
  AirSpeedModifierOnAccelerate: 1.25
  DashForceX: 12
  DashForceY: 12
  DashHangTime: 0.05
  MaxDashTime: 0.1
  DashGravityScale: 0.5
  JumpForce: 17
  WallJumpXForceModifier: 0.46
  AirDampingOnTurnAfterWallJump: 0.5
  JumpBreakFactor: 0.5
  JumpCoyoteTime: 0.1
  WallSlidingSpeed: 5
  SlipperyWallSlidingSpeed: 9
  GravityScale: 4
  Mass: 10
  GroundedDistanceCheck: 0.1
  LedgeDistanceCheck: 0.15
  WallDistanceCheck: 0.07
  JumpWaitForSuccessTime: 0.1
