%YAML 1.1
%TAG !u! tag:unity3d.com,2011:
--- !u!114 &11400000
MonoBehaviour:
  m_ObjectHideFlags: 0
  m_CorrespondingSourceObject: {fileID: 0}
  m_PrefabInstance: {fileID: 0}
  m_PrefabAsset: {fileID: 0}
  m_GameObject: {fileID: 0}
  m_Enabled: 1
  m_EditorHideFlags: 0
  m_Script: {fileID: 11500000, guid: 9d1514134bc4fbd41bb739b1b9a49231, type: 3}
  m_Name: SpikeTopRuleTile
  m_EditorClassIdentifier: 
  m_DefaultSprite: {fileID: 21300000, guid: 930d941b36ae2e246aafaabf5af05889, type: 3}
  m_DefaultGameObject: {fileID: 422602659328257188, guid: cf7582c677e0d1241b52e51de7d4c85a,
    type: 3}
  m_DefaultColliderType: 1
  m_TilingRules: []
