%YAML 1.1
%TAG !u! tag:unity3d.com,2011:
--- !u!1045 &1
EditorBuildSettings:
  m_ObjectHideFlags: 0
  serializedVersion: 2
  m_Scenes:
  - enabled: 1
    path: Assets/Scenes/_MainMenu.unity
    guid: ace31cac48a9f524ca5b3d87c65fd097
  - enabled: 1
    path: Assets/Scenes/Level_2.unity
    guid: e8a1432bb52e73e42aeef35bdc581aa5
  - enabled: 1
    path: Assets/Scenes/Level_1.unity
    guid: 3d36435432c7315479c0b824ad112586
  - enabled: 1
    path: Assets/Scenes/Level_0_Testing.unity
    guid: 2cda990e2423bbf4892e6590ba056729
  m_configObjects: {}
