%YAML 1.1
%TAG !u! tag:unity3d.com,2011:
--- !u!1001 &4966266245309032491
PrefabInstance:
  m_ObjectHideFlags: 0
  serializedVersion: 2
  m_Modification:
    m_TransformParent: {fileID: 0}
    m_Modifications:
    - target: {fileID: 72609099128985608, guid: d8e9d283c30ba394099432ff8211dd03,
        type: 3}
      propertyPath: m_LocalPosition.x
      value: 0.358
      objectReference: {fileID: 0}
    - target: {fileID: 2930445148622500701, guid: d8e9d283c30ba394099432ff8211dd03,
        type: 3}
      propertyPath: m_Color.r
      value: 1
      objectReference: {fileID: 0}
    - target: {fileID: 2930445148622500701, guid: d8e9d283c30ba394099432ff8211dd03,
        type: 3}
      propertyPath: m_Color.g
      value: 0
      objectReference: {fileID: 0}
    - target: {fileID: 2930445148622500701, guid: d8e9d283c30ba394099432ff8211dd03,
        type: 3}
      propertyPath: m_Color.b
      value: 0
      objectReference: {fileID: 0}
    - target: {fileID: 3441636398198158497, guid: d8e9d283c30ba394099432ff8211dd03,
        type: 3}
      propertyPath: m_Color.r
      value: 1
      objectReference: {fileID: 0}
    - target: {fileID: 3441636398198158497, guid: d8e9d283c30ba394099432ff8211dd03,
        type: 3}
      propertyPath: m_Color.g
      value: 0
      objectReference: {fileID: 0}
    - target: {fileID: 3441636398198158497, guid: d8e9d283c30ba394099432ff8211dd03,
        type: 3}
      propertyPath: m_Color.b
      value: 0
      objectReference: {fileID: 0}
    - target: {fileID: 4059221701859484352, guid: d8e9d283c30ba394099432ff8211dd03,
        type: 3}
      propertyPath: m_Name
      value: DarkGoomBro Variant
      objectReference: {fileID: 0}
    - target: {fileID: 4059221701859484360, guid: d8e9d283c30ba394099432ff8211dd03,
        type: 3}
      propertyPath: PlayerHealthOnDeath
      value: 30
      objectReference: {fileID: 0}
    - target: {fileID: 4059221701859484367, guid: d8e9d283c30ba394099432ff8211dd03,
        type: 3}
      propertyPath: m_LocalPosition.x
      value: 10.616
      objectReference: {fileID: 0}
    - target: {fileID: 4059221701859484367, guid: d8e9d283c30ba394099432ff8211dd03,
        type: 3}
      propertyPath: m_LocalPosition.y
      value: 2.65
      objectReference: {fileID: 0}
    - target: {fileID: 4059221701859484367, guid: d8e9d283c30ba394099432ff8211dd03,
        type: 3}
      propertyPath: m_LocalPosition.z
      value: 0
      objectReference: {fileID: 0}
    - target: {fileID: 4059221701859484367, guid: d8e9d283c30ba394099432ff8211dd03,
        type: 3}
      propertyPath: m_LocalRotation.x
      value: 0
      objectReference: {fileID: 0}
    - target: {fileID: 4059221701859484367, guid: d8e9d283c30ba394099432ff8211dd03,
        type: 3}
      propertyPath: m_LocalRotation.y
      value: 0
      objectReference: {fileID: 0}
    - target: {fileID: 4059221701859484367, guid: d8e9d283c30ba394099432ff8211dd03,
        type: 3}
      propertyPath: m_LocalRotation.z
      value: 0
      objectReference: {fileID: 0}
    - target: {fileID: 4059221701859484367, guid: d8e9d283c30ba394099432ff8211dd03,
        type: 3}
      propertyPath: m_LocalRotation.w
      value: 1
      objectReference: {fileID: 0}
    - target: {fileID: 4059221701859484367, guid: d8e9d283c30ba394099432ff8211dd03,
        type: 3}
      propertyPath: m_RootOrder
      value: 0
      objectReference: {fileID: 0}
    - target: {fileID: 4059221701859484367, guid: d8e9d283c30ba394099432ff8211dd03,
        type: 3}
      propertyPath: m_LocalEulerAnglesHint.x
      value: 0
      objectReference: {fileID: 0}
    - target: {fileID: 4059221701859484367, guid: d8e9d283c30ba394099432ff8211dd03,
        type: 3}
      propertyPath: m_LocalEulerAnglesHint.y
      value: 0
      objectReference: {fileID: 0}
    - target: {fileID: 4059221701859484367, guid: d8e9d283c30ba394099432ff8211dd03,
        type: 3}
      propertyPath: m_LocalEulerAnglesHint.z
      value: 0
      objectReference: {fileID: 0}
    - target: {fileID: 4786033338847177601, guid: d8e9d283c30ba394099432ff8211dd03,
        type: 3}
      propertyPath: m_PointLightOuterRadius
      value: 3.2
      objectReference: {fileID: 0}
    - target: {fileID: 4977520012097613653, guid: d8e9d283c30ba394099432ff8211dd03,
        type: 3}
      propertyPath: m_Offset.x
      value: -0.011247012
      objectReference: {fileID: 0}
    - target: {fileID: 4977520012097613653, guid: d8e9d283c30ba394099432ff8211dd03,
        type: 3}
      propertyPath: m_Size.x
      value: 0.7601
      objectReference: {fileID: 0}
    - target: {fileID: 5298941526149584336, guid: d8e9d283c30ba394099432ff8211dd03,
        type: 3}
      propertyPath: m_Offset.y
      value: 0.715929
      objectReference: {fileID: 0}
    - target: {fileID: 5298941526149584336, guid: d8e9d283c30ba394099432ff8211dd03,
        type: 3}
      propertyPath: m_Size.y
      value: 0.8262814
      objectReference: {fileID: 0}
    - target: {fileID: 5298941526149584336, guid: d8e9d283c30ba394099432ff8211dd03,
        type: 3}
      propertyPath: m_Offset.x
      value: 0.39372683
      objectReference: {fileID: 0}
    - target: {fileID: 5298941526149584336, guid: d8e9d283c30ba394099432ff8211dd03,
        type: 3}
      propertyPath: m_Size.x
      value: 0.12251568
      objectReference: {fileID: 0}
    - target: {fileID: 5676737287728235122, guid: d8e9d283c30ba394099432ff8211dd03,
        type: 3}
      propertyPath: m_Color.r
      value: 0.21698111
      objectReference: {fileID: 0}
    - target: {fileID: 5676737287728235122, guid: d8e9d283c30ba394099432ff8211dd03,
        type: 3}
      propertyPath: m_Color.g
      value: 0.21698111
      objectReference: {fileID: 0}
    - target: {fileID: 5676737287728235122, guid: d8e9d283c30ba394099432ff8211dd03,
        type: 3}
      propertyPath: m_Color.b
      value: 0.21698111
      objectReference: {fileID: 0}
    - target: {fileID: 5683508508378861929, guid: d8e9d283c30ba394099432ff8211dd03,
        type: 3}
      propertyPath: m_Color.r
      value: 0.21698111
      objectReference: {fileID: 0}
    - target: {fileID: 5683508508378861929, guid: d8e9d283c30ba394099432ff8211dd03,
        type: 3}
      propertyPath: m_Color.g
      value: 0.21698111
      objectReference: {fileID: 0}
    - target: {fileID: 5683508508378861929, guid: d8e9d283c30ba394099432ff8211dd03,
        type: 3}
      propertyPath: m_Color.b
      value: 0.21698111
      objectReference: {fileID: 0}
    - target: {fileID: 6109586711461761769, guid: d8e9d283c30ba394099432ff8211dd03,
        type: 3}
      propertyPath: GoombaColor.rgba
      value: 4280229663
      objectReference: {fileID: 0}
    - target: {fileID: 6109586711461761769, guid: d8e9d283c30ba394099432ff8211dd03,
        type: 3}
      propertyPath: CanLookBack
      value: 1
      objectReference: {fileID: 0}
    - target: {fileID: 6109586711461761769, guid: d8e9d283c30ba394099432ff8211dd03,
        type: 3}
      propertyPath: HitDamage
      value: 32.03
      objectReference: {fileID: 0}
    - target: {fileID: 6109586711461761769, guid: d8e9d283c30ba394099432ff8211dd03,
        type: 3}
      propertyPath: TouchDamage
      value: 20
      objectReference: {fileID: 0}
    - target: {fileID: 6109586711461761769, guid: d8e9d283c30ba394099432ff8211dd03,
        type: 3}
      propertyPath: IdleTime
      value: 0.6
      objectReference: {fileID: 0}
    - target: {fileID: 6109586711461761769, guid: d8e9d283c30ba394099432ff8211dd03,
        type: 3}
      propertyPath: HurtTime
      value: 1.1
      objectReference: {fileID: 0}
    - target: {fileID: 6109586711461761769, guid: d8e9d283c30ba394099432ff8211dd03,
        type: 3}
      propertyPath: AttackTime
      value: 0.72
      objectReference: {fileID: 0}
    - target: {fileID: 6109586711461761769, guid: d8e9d283c30ba394099432ff8211dd03,
        type: 3}
      propertyPath: PushPlayerOnTopJumpVelocity.x
      value: 5.81
      objectReference: {fileID: 0}
    - target: {fileID: 6109586711461761769, guid: d8e9d283c30ba394099432ff8211dd03,
        type: 3}
      propertyPath: PushPlayerOnTouchVelocity.x
      value: 11.04
      objectReference: {fileID: 0}
    - target: {fileID: 6109586711461761769, guid: d8e9d283c30ba394099432ff8211dd03,
        type: 3}
      propertyPath: PushPlayerOnAttackHitVelocity.x
      value: 16.2
      objectReference: {fileID: 0}
    - target: {fileID: 6109586711461761769, guid: d8e9d283c30ba394099432ff8211dd03,
        type: 3}
      propertyPath: PushPlayerOnAttackHitVelocity.y
      value: 7.6
      objectReference: {fileID: 0}
    - target: {fileID: 6109586711461761769, guid: d8e9d283c30ba394099432ff8211dd03,
        type: 3}
      propertyPath: Health
      value: 13
      objectReference: {fileID: 0}
    - target: {fileID: 6109586711461761769, guid: d8e9d283c30ba394099432ff8211dd03,
        type: 3}
      propertyPath: MoveSpeed
      value: 3
      objectReference: {fileID: 0}
    - target: {fileID: 6109586711461761769, guid: d8e9d283c30ba394099432ff8211dd03,
        type: 3}
      propertyPath: PushPlayerOnTopJumpVelocity.y
      value: 14.5
      objectReference: {fileID: 0}
    - target: {fileID: 6109586711461761769, guid: d8e9d283c30ba394099432ff8211dd03,
        type: 3}
      propertyPath: AttackExtraXDistance
      value: 4.04
      objectReference: {fileID: 0}
    - target: {fileID: 6109586711461761769, guid: d8e9d283c30ba394099432ff8211dd03,
        type: 3}
      propertyPath: CanLookExtraXDistance
      value: 1
      objectReference: {fileID: 0}
    - target: {fileID: 6109586711461761769, guid: d8e9d283c30ba394099432ff8211dd03,
        type: 3}
      propertyPath: LookDistanceX
      value: 3.2
      objectReference: {fileID: 0}
    - target: {fileID: 6109586711461761769, guid: d8e9d283c30ba394099432ff8211dd03,
        type: 3}
      propertyPath: PushPlayerOnTouchVelocity.y
      value: 5
      objectReference: {fileID: 0}
    - target: {fileID: 6109586711461761769, guid: d8e9d283c30ba394099432ff8211dd03,
        type: 3}
      propertyPath: PointsOnKill
      value: 75
      objectReference: {fileID: 0}
    - target: {fileID: 6441048254261755922, guid: d8e9d283c30ba394099432ff8211dd03,
        type: 3}
      propertyPath: m_Color.r
      value: 0.21698111
      objectReference: {fileID: 0}
    - target: {fileID: 6441048254261755922, guid: d8e9d283c30ba394099432ff8211dd03,
        type: 3}
      propertyPath: m_Color.g
      value: 0.21698111
      objectReference: {fileID: 0}
    - target: {fileID: 6441048254261755922, guid: d8e9d283c30ba394099432ff8211dd03,
        type: 3}
      propertyPath: m_Color.b
      value: 0.21698111
      objectReference: {fileID: 0}
    m_RemovedComponents: []
  m_SourcePrefab: {fileID: 100100000, guid: d8e9d283c30ba394099432ff8211dd03, type: 3}
